interactions:
- request:
    body: null
    headers:
      Accept: ['*/*']
      Accept-Encoding: ['gzip, deflate, compress']
      User-Agent: [python-requests/2.2.1 CPython/2.7.7 Darwin/13.2.0]
    method: GET
    uri: http://localhost:8000/api/v2/file/
  response:
    body: {string: !!python/unicode '{"meta": {"limit": 20, "next": "/api/v2/file/?limit=20&offset=20",
        "offset": 0, "previous": null, "total_count": 30}, "objects": [{"current_full_path":
        "/var/archivematica/sharedDirectory/www/AIPsStore/a7f2/a05b/0fdf/42f1/a46c/4522/a831/cf17/Unicode-a7f2a05b-0fdf-42f1-a46c-4522a831cf17.7z",
        "current_location": "/api/v2/location/0b82f734-763a-453c-979d-0a14cf0a250c/",
        "current_path": "a7f2/a05b/0fdf/42f1/a46c/4522/a831/cf17/Unicode-a7f2a05b-0fdf-42f1-a46c-4522a831cf17.7z",
        "origin_pipeline": "/api/v2/pipeline/b1cb2ba4-bf69-49a7-8aee-e472321d4dc7/",
        "package_type": "AIP", "resource_uri": "/api/v2/file/a7f2a05b-0fdf-42f1-a46c-4522a831cf17/",
        "size": 3506333, "status": "UPLOADED", "uuid": "a7f2a05b-0fdf-42f1-a46c-4522a831cf17"},
        {"current_full_path": "/var/archivematica/sharedDirectory/www/AIPsStore/c8eb/b75e/6b7a/46dd/a360/91d3/753d/7b72/Images-c8ebb75e-6b7a-46dd-a360-91d3753d7b72.7z",
        "current_location": "/api/v2/location/0b82f734-763a-453c-979d-0a14cf0a250c/",
        "current_path": "c8eb/b75e/6b7a/46dd/a360/91d3/753d/7b72/Images-c8ebb75e-6b7a-46dd-a360-91d3753d7b72.7z",
        "origin_pipeline": "/api/v2/pipeline/b1cb2ba4-bf69-49a7-8aee-e472321d4dc7/",
        "package_type": "AIP", "resource_uri": "/api/v2/file/c8ebb75e-6b7a-46dd-a360-91d3753d7b72/",
        "size": 29439867, "status": "UPLOADED", "uuid": "c8ebb75e-6b7a-46dd-a360-91d3753d7b72"},
        {"current_full_path": "/var/archivematica/sharedDirectory/www/AIPsStore/9bfe/f17e/f315/4963/aa5c/bc31/c9ed/9721/Big_Buck_Bunny_MediaInfo-9bfef17e-f315-4963-aa5c-bc31c9ed9721.7z",
        "current_location": "/api/v2/location/0b82f734-763a-453c-979d-0a14cf0a250c/",
        "current_path": "9bfe/f17e/f315/4963/aa5c/bc31/c9ed/9721/Big_Buck_Bunny_MediaInfo-9bfef17e-f315-4963-aa5c-bc31c9ed9721.7z",
        "origin_pipeline": "/api/v2/pipeline/a6e88250-09c7-4bdc-ae20-3fa6aef24027/",
        "package_type": "AIP", "resource_uri": "/api/v2/file/9bfef17e-f315-4963-aa5c-bc31c9ed9721/",
        "size": 725962660, "status": "UPLOADED", "uuid": "9bfef17e-f315-4963-aa5c-bc31c9ed9721"},
        {"current_full_path": "/var/archivematica/sharedDirectory/www/AIPsStore/08fe/bc04/7907/4add/8db3/19a0/3c2b/3875/Smaufrai-08febc04-7907-4add-8db3-19a03c2b3875",
        "current_location": "/api/v2/location/0b82f734-763a-453c-979d-0a14cf0a250c/",
        "current_path": "08fe/bc04/7907/4add/8db3/19a0/3c2b/3875/Smaufrai-08febc04-7907-4add-8db3-19a03c2b3875",
        "origin_pipeline": "/api/v2/pipeline/3ddda177-cda2-47a4-be1b-74d89f8731df/",
        "package_type": "AIP", "resource_uri": "/api/v2/file/08febc04-7907-4add-8db3-19a03c2b3875/",
        "size": 4096, "status": "PENDING", "uuid": "08febc04-7907-4add-8db3-19a03c2b3875"},
        {"current_full_path": "/var/archivematica/sharedDirectory/www/AIPsStore/5650/0c8d/1037/4d0a/b441/4022/92c9/7452/Smaufrai-56500c8d-1037-4d0a-b441-402292c97452",
        "current_location": "/api/v2/location/0b82f734-763a-453c-979d-0a14cf0a250c/",
        "current_path": "5650/0c8d/1037/4d0a/b441/4022/92c9/7452/Smaufrai-56500c8d-1037-4d0a-b441-402292c97452",
        "origin_pipeline": "/api/v2/pipeline/3ddda177-cda2-47a4-be1b-74d89f8731df/",
        "package_type": "AIP", "resource_uri": "/api/v2/file/56500c8d-1037-4d0a-b441-402292c97452/",
        "size": 4096, "status": "UPLOADED", "uuid": "56500c8d-1037-4d0a-b441-402292c97452"},
        {"current_full_path": "/var/archivematica/sharedDirectory/www/AIPsStore/d897/e757/de59/495b/b06a/b702/8318/4964/Smaufrai-d897e757-de59-495b-b06a-b70283184964",
        "current_location": "/api/v2/location/0b82f734-763a-453c-979d-0a14cf0a250c/",
        "current_path": "d897/e757/de59/495b/b06a/b702/8318/4964/Smaufrai-d897e757-de59-495b-b06a-b70283184964",
        "origin_pipeline": "/api/v2/pipeline/3ddda177-cda2-47a4-be1b-74d89f8731df/",
        "package_type": "AIP", "resource_uri": "/api/v2/file/d897e757-de59-495b-b06a-b70283184964/",
        "size": 4096, "status": "UPLOADED", "uuid": "d897e757-de59-495b-b06a-b70283184964"},
        {"current_full_path": "/var/archivematica/sharedDirectory/www/AIPsStore/9b85/0339/2bee/441c/85a3/8cf7/c570/46fd/Smaufrai-9b850339-2bee-441c-85a3-8cf7c57046fd",
        "current_location": "/api/v2/location/0b82f734-763a-453c-979d-0a14cf0a250c/",
        "current_path": "9b85/0339/2bee/441c/85a3/8cf7/c570/46fd/Smaufrai-9b850339-2bee-441c-85a3-8cf7c57046fd",
        "origin_pipeline": "/api/v2/pipeline/3ddda177-cda2-47a4-be1b-74d89f8731df/",
        "package_type": "AIP", "resource_uri": "/api/v2/file/9b850339-2bee-441c-85a3-8cf7c57046fd/",
        "size": 4096, "status": "UPLOADED", "uuid": "9b850339-2bee-441c-85a3-8cf7c57046fd"},
        {"current_full_path": "/var/archivematica/sharedDirectory/www/AIPsStore/d699/0c98/726f/4bd3/8278/ac5a/74e9/9b93/Smaufrai-d6990c98-726f-4bd3-8278-ac5a74e99b93.7z",
        "current_location": "/api/v2/location/0b82f734-763a-453c-979d-0a14cf0a250c/",
        "current_path": "d699/0c98/726f/4bd3/8278/ac5a/74e9/9b93/Smaufrai-d6990c98-726f-4bd3-8278-ac5a74e99b93.7z",
        "origin_pipeline": "/api/v2/pipeline/62323bb0-1e63-4b07-a51e-d5278e841327/",
        "package_type": "AIP", "resource_uri": "/api/v2/file/d6990c98-726f-4bd3-8278-ac5a74e99b93/",
        "size": 807883, "status": "UPLOADED", "uuid": "d6990c98-726f-4bd3-8278-ac5a74e99b93"},
        {"current_full_path": "/var/archivematica/sharedDirectory/www/AIPsStore/8051/ca70/278d/455b/b24d/1ce8/c0cb/9ba7/Smaufrai-8051ca70-278d-455b-b24d-1ce8c0cb9ba7.7z",
        "current_location": "/api/v2/location/0b82f734-763a-453c-979d-0a14cf0a250c/",
        "current_path": "8051/ca70/278d/455b/b24d/1ce8/c0cb/9ba7/Smaufrai-8051ca70-278d-455b-b24d-1ce8c0cb9ba7.7z",
        "origin_pipeline": "/api/v2/pipeline/9296beb3-3b6a-4a7b-bd35-90d9d32e62e6/",
        "package_type": "AIP", "resource_uri": "/api/v2/file/8051ca70-278d-455b-b24d-1ce8c0cb9ba7/",
        "size": 815015, "status": "UPLOADED", "uuid": "8051ca70-278d-455b-b24d-1ce8c0cb9ba7"},
        {"current_full_path": "/var/archivematica/sharedDirectory/www/AIPsStore/b6ff/603a/d3d0/47ed/968a/d6d4/0c55/2fd1/Smaufrai-b6ff603a-d3d0-47ed-968a-d6d40c552fd1",
        "current_location": "/api/v2/location/0b82f734-763a-453c-979d-0a14cf0a250c/",
        "current_path": "b6ff/603a/d3d0/47ed/968a/d6d4/0c55/2fd1/Smaufrai-b6ff603a-d3d0-47ed-968a-d6d40c552fd1",
        "origin_pipeline": "/api/v2/pipeline/9296beb3-3b6a-4a7b-bd35-90d9d32e62e6/",
        "package_type": "AIP", "resource_uri": "/api/v2/file/b6ff603a-d3d0-47ed-968a-d6d40c552fd1/",
        "size": 4096, "status": "UPLOADED", "uuid": "b6ff603a-d3d0-47ed-968a-d6d40c552fd1"},
        {"current_full_path": "/var/archivematica/sharedDirectory/www/AIPsStore/2ec3/71cd/19ec/46aa/988f/8e59/8fef/75a2/Smaufrai-2ec371cd-19ec-46aa-988f-8e598fef75a2",
        "current_location": "/api/v2/location/0b82f734-763a-453c-979d-0a14cf0a250c/",
        "current_path": "2ec3/71cd/19ec/46aa/988f/8e59/8fef/75a2/Smaufrai-2ec371cd-19ec-46aa-988f-8e598fef75a2",
        "origin_pipeline": "/api/v2/pipeline/9296beb3-3b6a-4a7b-bd35-90d9d32e62e6/",
        "package_type": "AIP", "resource_uri": "/api/v2/file/2ec371cd-19ec-46aa-988f-8e598fef75a2/",
        "size": 4096, "status": "UPLOADED", "uuid": "2ec371cd-19ec-46aa-988f-8e598fef75a2"},
        {"current_full_path": "/var/archivematica/sharedDirectory/www/AIPsStore/38b8/48c6/397c/49c1/8851/d74a/fe1e/c3f9/Smaufrai-38b848c6-397c-49c1-8851-d74afe1ec3f9.7z",
        "current_location": "/api/v2/location/0b82f734-763a-453c-979d-0a14cf0a250c/",
        "current_path": "38b8/48c6/397c/49c1/8851/d74a/fe1e/c3f9/Smaufrai-38b848c6-397c-49c1-8851-d74afe1ec3f9.7z",
        "origin_pipeline": "/api/v2/pipeline/9296beb3-3b6a-4a7b-bd35-90d9d32e62e6/",
        "package_type": "AIP", "resource_uri": "/api/v2/file/38b848c6-397c-49c1-8851-d74afe1ec3f9/",
        "size": 809447, "status": "UPLOADED", "uuid": "38b848c6-397c-49c1-8851-d74afe1ec3f9"},
        {"current_full_path": "/var/archivematica/sharedDirectory/www/AIPsStore/316e/f097/d8d9/4631/b2b5/2e84/5523/b22f/Smaufrai-316ef097-d8d9-4631-b2b5-2e845523b22f.7z",
        "current_location": "/api/v2/location/0b82f734-763a-453c-979d-0a14cf0a250c/",
        "current_path": "316e/f097/d8d9/4631/b2b5/2e84/5523/b22f/Smaufrai-316ef097-d8d9-4631-b2b5-2e845523b22f.7z",
        "origin_pipeline": "/api/v2/pipeline/9296beb3-3b6a-4a7b-bd35-90d9d32e62e6/",
        "package_type": "AIP", "resource_uri": "/api/v2/file/316ef097-d8d9-4631-b2b5-2e845523b22f/",
        "size": 809186, "status": "UPLOADED", "uuid": "316ef097-d8d9-4631-b2b5-2e845523b22f"},
        {"current_full_path": "/var/archivematica/sharedDirectory/www/AIPsStore/b1d6/d5f4/dd7e/43e8/847e/c0ce/f07b/d706/Smaufrai_slash-b1d6d5f4-dd7e-43e8-847e-c0cef07bd706.7z",
        "current_location": "/api/v2/location/0b82f734-763a-453c-979d-0a14cf0a250c/",
        "current_path": "b1d6/d5f4/dd7e/43e8/847e/c0ce/f07b/d706/Smaufrai_slash-b1d6d5f4-dd7e-43e8-847e-c0cef07bd706.7z",
        "origin_pipeline": "/api/v2/pipeline/9296beb3-3b6a-4a7b-bd35-90d9d32e62e6/",
        "package_type": "AIP", "resource_uri": "/api/v2/file/b1d6d5f4-dd7e-43e8-847e-c0cef07bd706/",
        "size": 809109, "status": "UPLOADED", "uuid": "b1d6d5f4-dd7e-43e8-847e-c0cef07bd706"},
        {"current_full_path": "/var/archivematica/sharedDirectory/www/AIPsStore/a75d/68c3/57ad/483d/960f/72a7/28af/00c8",
        "current_location": "/api/v2/location/0b82f734-763a-453c-979d-0a14cf0a250c/",
        "current_path": "a75d/68c3/57ad/483d/960f/72a7/28af/00c8/", "origin_pipeline":
        "/api/v2/pipeline/9296beb3-3b6a-4a7b-bd35-90d9d32e62e6/", "package_type":
        "AIP", "resource_uri": "/api/v2/file/a75d68c3-57ad-483d-960f-72a728af00c8/",
        "size": 4096, "status": "UPLOADED", "uuid": "a75d68c3-57ad-483d-960f-72a728af00c8"},
        {"current_full_path": "/var/archivematica/sharedDirectory/www/AIPsStore/1238/f6f0/2309/43fc/b459/a532/d04b/81c6/Smaufrai_slash_take_2-1238f6f0-2309-43fc-b459-a532d04b81c6",
        "current_location": "/api/v2/location/0b82f734-763a-453c-979d-0a14cf0a250c/",
        "current_path": "1238/f6f0/2309/43fc/b459/a532/d04b/81c6/Smaufrai_slash_take_2-1238f6f0-2309-43fc-b459-a532d04b81c6",
        "origin_pipeline": "/api/v2/pipeline/9296beb3-3b6a-4a7b-bd35-90d9d32e62e6/",
        "package_type": "AIP", "resource_uri": "/api/v2/file/1238f6f0-2309-43fc-b459-a532d04b81c6/",
        "size": 4096, "status": "UPLOADED", "uuid": "1238f6f0-2309-43fc-b459-a532d04b81c6"},
        {"current_full_path": "/var/archivematica/sharedDirectory/www/AIPsStore/1b43/2256/4105/45e2/ac5d/cb2f/59ae/90e9/Smaufrai-1b432256-4105-45e2-ac5d-cb2f59ae90e9",
        "current_location": "/api/v2/location/0b82f734-763a-453c-979d-0a14cf0a250c/",
        "current_path": "1b43/2256/4105/45e2/ac5d/cb2f/59ae/90e9/Smaufrai-1b432256-4105-45e2-ac5d-cb2f59ae90e9",
        "origin_pipeline": "/api/v2/pipeline/f8149e09-8087-4e9e-931d-09f8b3cce50a/",
        "package_type": "AIP", "resource_uri": "/api/v2/file/1b432256-4105-45e2-ac5d-cb2f59ae90e9/",
        "size": 4096, "status": "UPLOADED", "uuid": "1b432256-4105-45e2-ac5d-cb2f59ae90e9"},
        {"current_full_path": "/var/archivematica/sharedDirectory/www/AIPsStore/467c/28c4/dcf9/4065/8f44/cf01/20f7/9e7f/Images-467c28c4-dcf9-4065-8f44-cf0120f79e7f",
        "current_location": "/api/v2/location/0b82f734-763a-453c-979d-0a14cf0a250c/",
        "current_path": "467c/28c4/dcf9/4065/8f44/cf01/20f7/9e7f/Images-467c28c4-dcf9-4065-8f44-cf0120f79e7f",
        "origin_pipeline": "/api/v2/pipeline/f8149e09-8087-4e9e-931d-09f8b3cce50a/",
        "package_type": "AIP", "resource_uri": "/api/v2/file/467c28c4-dcf9-4065-8f44-cf0120f79e7f/",
        "size": 4096, "status": "UPLOADED", "uuid": "467c28c4-dcf9-4065-8f44-cf0120f79e7f"},
        {"current_full_path": "/var/archivematica/sharedDirectory/www/AIPsStore/ff40/3b2b/185f/4d10/9af8/bf38/346e/4e8d/Images-ff403b2b-185f-4d10-9af8-bf38346e4e8d",
        "current_location": "/api/v2/location/0b82f734-763a-453c-979d-0a14cf0a250c/",
        "current_path": "ff40/3b2b/185f/4d10/9af8/bf38/346e/4e8d/Images-ff403b2b-185f-4d10-9af8-bf38346e4e8d",
        "origin_pipeline": "/api/v2/pipeline/30b52de6-c229-4559-9001-2e529eb89b10/",
        "package_type": "AIP", "resource_uri": "/api/v2/file/ff403b2b-185f-4d10-9af8-bf38346e4e8d/",
        "size": 4096, "status": "UPLOADED", "uuid": "ff403b2b-185f-4d10-9af8-bf38346e4e8d"},
        {"current_full_path": "/var/archivematica/sharedDirectory/www/AIPsStore/58a0/0e3d/dda4/44ad/af7a/8e68/c40f/d153/Smaufrai-58a00e3d-dda4-44ad-af7a-8e68c40fd153",
        "current_location": "/api/v2/location/0b82f734-763a-453c-979d-0a14cf0a250c/",
        "current_path": "58a0/0e3d/dda4/44ad/af7a/8e68/c40f/d153/Smaufrai-58a00e3d-dda4-44ad-af7a-8e68c40fd153",
        "origin_pipeline": "/api/v2/pipeline/30b52de6-c229-4559-9001-2e529eb89b10/",
        "package_type": "AIP", "resource_uri": "/api/v2/file/58a00e3d-dda4-44ad-af7a-8e68c40fd153/",
        "size": 4096, "status": "UPLOADED", "uuid": "58a00e3d-dda4-44ad-af7a-8e68c40fd153"}]}'}
    headers:
      cache-control: [no-cache]
      content-type: [application/json]
      date: ['Tue, 24 Jun 2014 22:11:25 GMT']
      server: [WSGIServer/0.1 Python/2.7.3]
      vary: ['Accept, Cookie']
      x-frame-options: [SAMEORIGIN]
    status: {code: 200, message: OK}
- request:
    body: null
    headers:
      Accept: ['*/*']
      Accept-Encoding: ['gzip, deflate, compress']
      User-Agent: [python-requests/2.2.1 CPython/2.7.7 Darwin/13.2.0]
    method: GET
    uri: http://localhost:8000/api/v2/file/?count=40
  response:
    body: {string: !!python/unicode '{"meta": {"limit": 20, "next": "/api/v2/file/?count=40&limit=20&offset=20",
        "offset": 0, "previous": null, "total_count": 30}, "objects": [{"current_full_path":
        "/var/archivematica/sharedDirectory/www/AIPsStore/a7f2/a05b/0fdf/42f1/a46c/4522/a831/cf17/Unicode-a7f2a05b-0fdf-42f1-a46c-4522a831cf17.7z",
        "current_location": "/api/v2/location/0b82f734-763a-453c-979d-0a14cf0a250c/",
        "current_path": "a7f2/a05b/0fdf/42f1/a46c/4522/a831/cf17/Unicode-a7f2a05b-0fdf-42f1-a46c-4522a831cf17.7z",
        "origin_pipeline": "/api/v2/pipeline/b1cb2ba4-bf69-49a7-8aee-e472321d4dc7/",
        "package_type": "AIP", "resource_uri": "/api/v2/file/a7f2a05b-0fdf-42f1-a46c-4522a831cf17/",
        "size": 3506333, "status": "UPLOADED", "uuid": "a7f2a05b-0fdf-42f1-a46c-4522a831cf17"},
        {"current_full_path": "/var/archivematica/sharedDirectory/www/AIPsStore/c8eb/b75e/6b7a/46dd/a360/91d3/753d/7b72/Images-c8ebb75e-6b7a-46dd-a360-91d3753d7b72.7z",
        "current_location": "/api/v2/location/0b82f734-763a-453c-979d-0a14cf0a250c/",
        "current_path": "c8eb/b75e/6b7a/46dd/a360/91d3/753d/7b72/Images-c8ebb75e-6b7a-46dd-a360-91d3753d7b72.7z",
        "origin_pipeline": "/api/v2/pipeline/b1cb2ba4-bf69-49a7-8aee-e472321d4dc7/",
        "package_type": "AIP", "resource_uri": "/api/v2/file/c8ebb75e-6b7a-46dd-a360-91d3753d7b72/",
        "size": 29439867, "status": "UPLOADED", "uuid": "c8ebb75e-6b7a-46dd-a360-91d3753d7b72"},
        {"current_full_path": "/var/archivematica/sharedDirectory/www/AIPsStore/9bfe/f17e/f315/4963/aa5c/bc31/c9ed/9721/Big_Buck_Bunny_MediaInfo-9bfef17e-f315-4963-aa5c-bc31c9ed9721.7z",
        "current_location": "/api/v2/location/0b82f734-763a-453c-979d-0a14cf0a250c/",
        "current_path": "9bfe/f17e/f315/4963/aa5c/bc31/c9ed/9721/Big_Buck_Bunny_MediaInfo-9bfef17e-f315-4963-aa5c-bc31c9ed9721.7z",
        "origin_pipeline": "/api/v2/pipeline/a6e88250-09c7-4bdc-ae20-3fa6aef24027/",
        "package_type": "AIP", "resource_uri": "/api/v2/file/9bfef17e-f315-4963-aa5c-bc31c9ed9721/",
        "size": 725962660, "status": "UPLOADED", "uuid": "9bfef17e-f315-4963-aa5c-bc31c9ed9721"},
        {"current_full_path": "/var/archivematica/sharedDirectory/www/AIPsStore/08fe/bc04/7907/4add/8db3/19a0/3c2b/3875/Smaufrai-08febc04-7907-4add-8db3-19a03c2b3875",
        "current_location": "/api/v2/location/0b82f734-763a-453c-979d-0a14cf0a250c/",
        "current_path": "08fe/bc04/7907/4add/8db3/19a0/3c2b/3875/Smaufrai-08febc04-7907-4add-8db3-19a03c2b3875",
        "origin_pipeline": "/api/v2/pipeline/3ddda177-cda2-47a4-be1b-74d89f8731df/",
        "package_type": "AIP", "resource_uri": "/api/v2/file/08febc04-7907-4add-8db3-19a03c2b3875/",
        "size": 4096, "status": "PENDING", "uuid": "08febc04-7907-4add-8db3-19a03c2b3875"},
        {"current_full_path": "/var/archivematica/sharedDirectory/www/AIPsStore/5650/0c8d/1037/4d0a/b441/4022/92c9/7452/Smaufrai-56500c8d-1037-4d0a-b441-402292c97452",
        "current_location": "/api/v2/location/0b82f734-763a-453c-979d-0a14cf0a250c/",
        "current_path": "5650/0c8d/1037/4d0a/b441/4022/92c9/7452/Smaufrai-56500c8d-1037-4d0a-b441-402292c97452",
        "origin_pipeline": "/api/v2/pipeline/3ddda177-cda2-47a4-be1b-74d89f8731df/",
        "package_type": "AIP", "resource_uri": "/api/v2/file/56500c8d-1037-4d0a-b441-402292c97452/",
        "size": 4096, "status": "UPLOADED", "uuid": "56500c8d-1037-4d0a-b441-402292c97452"},
        {"current_full_path": "/var/archivematica/sharedDirectory/www/AIPsStore/d897/e757/de59/495b/b06a/b702/8318/4964/Smaufrai-d897e757-de59-495b-b06a-b70283184964",
        "current_location": "/api/v2/location/0b82f734-763a-453c-979d-0a14cf0a250c/",
        "current_path": "d897/e757/de59/495b/b06a/b702/8318/4964/Smaufrai-d897e757-de59-495b-b06a-b70283184964",
        "origin_pipeline": "/api/v2/pipeline/3ddda177-cda2-47a4-be1b-74d89f8731df/",
        "package_type": "AIP", "resource_uri": "/api/v2/file/d897e757-de59-495b-b06a-b70283184964/",
        "size": 4096, "status": "UPLOADED", "uuid": "d897e757-de59-495b-b06a-b70283184964"},
        {"current_full_path": "/var/archivematica/sharedDirectory/www/AIPsStore/9b85/0339/2bee/441c/85a3/8cf7/c570/46fd/Smaufrai-9b850339-2bee-441c-85a3-8cf7c57046fd",
        "current_location": "/api/v2/location/0b82f734-763a-453c-979d-0a14cf0a250c/",
        "current_path": "9b85/0339/2bee/441c/85a3/8cf7/c570/46fd/Smaufrai-9b850339-2bee-441c-85a3-8cf7c57046fd",
        "origin_pipeline": "/api/v2/pipeline/3ddda177-cda2-47a4-be1b-74d89f8731df/",
        "package_type": "AIP", "resource_uri": "/api/v2/file/9b850339-2bee-441c-85a3-8cf7c57046fd/",
        "size": 4096, "status": "UPLOADED", "uuid": "9b850339-2bee-441c-85a3-8cf7c57046fd"},
        {"current_full_path": "/var/archivematica/sharedDirectory/www/AIPsStore/d699/0c98/726f/4bd3/8278/ac5a/74e9/9b93/Smaufrai-d6990c98-726f-4bd3-8278-ac5a74e99b93.7z",
        "current_location": "/api/v2/location/0b82f734-763a-453c-979d-0a14cf0a250c/",
        "current_path": "d699/0c98/726f/4bd3/8278/ac5a/74e9/9b93/Smaufrai-d6990c98-726f-4bd3-8278-ac5a74e99b93.7z",
        "origin_pipeline": "/api/v2/pipeline/62323bb0-1e63-4b07-a51e-d5278e841327/",
        "package_type": "AIP", "resource_uri": "/api/v2/file/d6990c98-726f-4bd3-8278-ac5a74e99b93/",
        "size": 807883, "status": "UPLOADED", "uuid": "d6990c98-726f-4bd3-8278-ac5a74e99b93"},
        {"current_full_path": "/var/archivematica/sharedDirectory/www/AIPsStore/8051/ca70/278d/455b/b24d/1ce8/c0cb/9ba7/Smaufrai-8051ca70-278d-455b-b24d-1ce8c0cb9ba7.7z",
        "current_location": "/api/v2/location/0b82f734-763a-453c-979d-0a14cf0a250c/",
        "current_path": "8051/ca70/278d/455b/b24d/1ce8/c0cb/9ba7/Smaufrai-8051ca70-278d-455b-b24d-1ce8c0cb9ba7.7z",
        "origin_pipeline": "/api/v2/pipeline/9296beb3-3b6a-4a7b-bd35-90d9d32e62e6/",
        "package_type": "AIP", "resource_uri": "/api/v2/file/8051ca70-278d-455b-b24d-1ce8c0cb9ba7/",
        "size": 815015, "status": "UPLOADED", "uuid": "8051ca70-278d-455b-b24d-1ce8c0cb9ba7"},
        {"current_full_path": "/var/archivematica/sharedDirectory/www/AIPsStore/b6ff/603a/d3d0/47ed/968a/d6d4/0c55/2fd1/Smaufrai-b6ff603a-d3d0-47ed-968a-d6d40c552fd1",
        "current_location": "/api/v2/location/0b82f734-763a-453c-979d-0a14cf0a250c/",
        "current_path": "b6ff/603a/d3d0/47ed/968a/d6d4/0c55/2fd1/Smaufrai-b6ff603a-d3d0-47ed-968a-d6d40c552fd1",
        "origin_pipeline": "/api/v2/pipeline/9296beb3-3b6a-4a7b-bd35-90d9d32e62e6/",
        "package_type": "AIP", "resource_uri": "/api/v2/file/b6ff603a-d3d0-47ed-968a-d6d40c552fd1/",
        "size": 4096, "status": "UPLOADED", "uuid": "b6ff603a-d3d0-47ed-968a-d6d40c552fd1"},
        {"current_full_path": "/var/archivematica/sharedDirectory/www/AIPsStore/2ec3/71cd/19ec/46aa/988f/8e59/8fef/75a2/Smaufrai-2ec371cd-19ec-46aa-988f-8e598fef75a2",
        "current_location": "/api/v2/location/0b82f734-763a-453c-979d-0a14cf0a250c/",
        "current_path": "2ec3/71cd/19ec/46aa/988f/8e59/8fef/75a2/Smaufrai-2ec371cd-19ec-46aa-988f-8e598fef75a2",
        "origin_pipeline": "/api/v2/pipeline/9296beb3-3b6a-4a7b-bd35-90d9d32e62e6/",
        "package_type": "AIP", "resource_uri": "/api/v2/file/2ec371cd-19ec-46aa-988f-8e598fef75a2/",
        "size": 4096, "status": "UPLOADED", "uuid": "2ec371cd-19ec-46aa-988f-8e598fef75a2"},
        {"current_full_path": "/var/archivematica/sharedDirectory/www/AIPsStore/38b8/48c6/397c/49c1/8851/d74a/fe1e/c3f9/Smaufrai-38b848c6-397c-49c1-8851-d74afe1ec3f9.7z",
        "current_location": "/api/v2/location/0b82f734-763a-453c-979d-0a14cf0a250c/",
        "current_path": "38b8/48c6/397c/49c1/8851/d74a/fe1e/c3f9/Smaufrai-38b848c6-397c-49c1-8851-d74afe1ec3f9.7z",
        "origin_pipeline": "/api/v2/pipeline/9296beb3-3b6a-4a7b-bd35-90d9d32e62e6/",
        "package_type": "AIP", "resource_uri": "/api/v2/file/38b848c6-397c-49c1-8851-d74afe1ec3f9/",
        "size": 809447, "status": "UPLOADED", "uuid": "38b848c6-397c-49c1-8851-d74afe1ec3f9"},
        {"current_full_path": "/var/archivematica/sharedDirectory/www/AIPsStore/316e/f097/d8d9/4631/b2b5/2e84/5523/b22f/Smaufrai-316ef097-d8d9-4631-b2b5-2e845523b22f.7z",
        "current_location": "/api/v2/location/0b82f734-763a-453c-979d-0a14cf0a250c/",
        "current_path": "316e/f097/d8d9/4631/b2b5/2e84/5523/b22f/Smaufrai-316ef097-d8d9-4631-b2b5-2e845523b22f.7z",
        "origin_pipeline": "/api/v2/pipeline/9296beb3-3b6a-4a7b-bd35-90d9d32e62e6/",
        "package_type": "AIP", "resource_uri": "/api/v2/file/316ef097-d8d9-4631-b2b5-2e845523b22f/",
        "size": 809186, "status": "UPLOADED", "uuid": "316ef097-d8d9-4631-b2b5-2e845523b22f"},
        {"current_full_path": "/var/archivematica/sharedDirectory/www/AIPsStore/b1d6/d5f4/dd7e/43e8/847e/c0ce/f07b/d706/Smaufrai_slash-b1d6d5f4-dd7e-43e8-847e-c0cef07bd706.7z",
        "current_location": "/api/v2/location/0b82f734-763a-453c-979d-0a14cf0a250c/",
        "current_path": "b1d6/d5f4/dd7e/43e8/847e/c0ce/f07b/d706/Smaufrai_slash-b1d6d5f4-dd7e-43e8-847e-c0cef07bd706.7z",
        "origin_pipeline": "/api/v2/pipeline/9296beb3-3b6a-4a7b-bd35-90d9d32e62e6/",
        "package_type": "AIP", "resource_uri": "/api/v2/file/b1d6d5f4-dd7e-43e8-847e-c0cef07bd706/",
        "size": 809109, "status": "UPLOADED", "uuid": "b1d6d5f4-dd7e-43e8-847e-c0cef07bd706"},
        {"current_full_path": "/var/archivematica/sharedDirectory/www/AIPsStore/a75d/68c3/57ad/483d/960f/72a7/28af/00c8",
        "current_location": "/api/v2/location/0b82f734-763a-453c-979d-0a14cf0a250c/",
        "current_path": "a75d/68c3/57ad/483d/960f/72a7/28af/00c8/", "origin_pipeline":
        "/api/v2/pipeline/9296beb3-3b6a-4a7b-bd35-90d9d32e62e6/", "package_type":
        "AIP", "resource_uri": "/api/v2/file/a75d68c3-57ad-483d-960f-72a728af00c8/",
        "size": 4096, "status": "UPLOADED", "uuid": "a75d68c3-57ad-483d-960f-72a728af00c8"},
        {"current_full_path": "/var/archivematica/sharedDirectory/www/AIPsStore/1238/f6f0/2309/43fc/b459/a532/d04b/81c6/Smaufrai_slash_take_2-1238f6f0-2309-43fc-b459-a532d04b81c6",
        "current_location": "/api/v2/location/0b82f734-763a-453c-979d-0a14cf0a250c/",
        "current_path": "1238/f6f0/2309/43fc/b459/a532/d04b/81c6/Smaufrai_slash_take_2-1238f6f0-2309-43fc-b459-a532d04b81c6",
        "origin_pipeline": "/api/v2/pipeline/9296beb3-3b6a-4a7b-bd35-90d9d32e62e6/",
        "package_type": "AIP", "resource_uri": "/api/v2/file/1238f6f0-2309-43fc-b459-a532d04b81c6/",
        "size": 4096, "status": "UPLOADED", "uuid": "1238f6f0-2309-43fc-b459-a532d04b81c6"},
        {"current_full_path": "/var/archivematica/sharedDirectory/www/AIPsStore/1b43/2256/4105/45e2/ac5d/cb2f/59ae/90e9/Smaufrai-1b432256-4105-45e2-ac5d-cb2f59ae90e9",
        "current_location": "/api/v2/location/0b82f734-763a-453c-979d-0a14cf0a250c/",
        "current_path": "1b43/2256/4105/45e2/ac5d/cb2f/59ae/90e9/Smaufrai-1b432256-4105-45e2-ac5d-cb2f59ae90e9",
        "origin_pipeline": "/api/v2/pipeline/f8149e09-8087-4e9e-931d-09f8b3cce50a/",
        "package_type": "AIP", "resource_uri": "/api/v2/file/1b432256-4105-45e2-ac5d-cb2f59ae90e9/",
        "size": 4096, "status": "UPLOADED", "uuid": "1b432256-4105-45e2-ac5d-cb2f59ae90e9"},
        {"current_full_path": "/var/archivematica/sharedDirectory/www/AIPsStore/467c/28c4/dcf9/4065/8f44/cf01/20f7/9e7f/Images-467c28c4-dcf9-4065-8f44-cf0120f79e7f",
        "current_location": "/api/v2/location/0b82f734-763a-453c-979d-0a14cf0a250c/",
        "current_path": "467c/28c4/dcf9/4065/8f44/cf01/20f7/9e7f/Images-467c28c4-dcf9-4065-8f44-cf0120f79e7f",
        "origin_pipeline": "/api/v2/pipeline/f8149e09-8087-4e9e-931d-09f8b3cce50a/",
        "package_type": "AIP", "resource_uri": "/api/v2/file/467c28c4-dcf9-4065-8f44-cf0120f79e7f/",
        "size": 4096, "status": "UPLOADED", "uuid": "467c28c4-dcf9-4065-8f44-cf0120f79e7f"},
        {"current_full_path": "/var/archivematica/sharedDirectory/www/AIPsStore/ff40/3b2b/185f/4d10/9af8/bf38/346e/4e8d/Images-ff403b2b-185f-4d10-9af8-bf38346e4e8d",
        "current_location": "/api/v2/location/0b82f734-763a-453c-979d-0a14cf0a250c/",
        "current_path": "ff40/3b2b/185f/4d10/9af8/bf38/346e/4e8d/Images-ff403b2b-185f-4d10-9af8-bf38346e4e8d",
        "origin_pipeline": "/api/v2/pipeline/30b52de6-c229-4559-9001-2e529eb89b10/",
        "package_type": "AIP", "resource_uri": "/api/v2/file/ff403b2b-185f-4d10-9af8-bf38346e4e8d/",
        "size": 4096, "status": "UPLOADED", "uuid": "ff403b2b-185f-4d10-9af8-bf38346e4e8d"},
        {"current_full_path": "/var/archivematica/sharedDirectory/www/AIPsStore/58a0/0e3d/dda4/44ad/af7a/8e68/c40f/d153/Smaufrai-58a00e3d-dda4-44ad-af7a-8e68c40fd153",
        "current_location": "/api/v2/location/0b82f734-763a-453c-979d-0a14cf0a250c/",
        "current_path": "58a0/0e3d/dda4/44ad/af7a/8e68/c40f/d153/Smaufrai-58a00e3d-dda4-44ad-af7a-8e68c40fd153",
        "origin_pipeline": "/api/v2/pipeline/30b52de6-c229-4559-9001-2e529eb89b10/",
        "package_type": "AIP", "resource_uri": "/api/v2/file/58a00e3d-dda4-44ad-af7a-8e68c40fd153/",
        "size": 4096, "status": "UPLOADED", "uuid": "58a00e3d-dda4-44ad-af7a-8e68c40fd153"}]}'}
    headers:
      cache-control: [no-cache]
      content-type: [application/json]
      date: ['Tue, 24 Jun 2014 22:11:25 GMT']
      server: [WSGIServer/0.1 Python/2.7.3]
      vary: ['Accept, Cookie']
      x-frame-options: [SAMEORIGIN]
    status: {code: 200, message: OK}
version: 1
